[
	{"name": "GCompris", "application": "gcompris", "type": "generic-build", "cmakeParameters": "", "dependency": "export APP_GIT_EXTRA='--recurse-submodules'"},
	{"name": "Marble", "application": "marble", "type": "generic-build", "cmakeParameters": "", "dependency": ""},
	{"name": "KStars", "application": "kstars", "type": "generic-build", "cmakeParameters": "", "dependency": "/opt/helpers/build-eigen && sudo apt install dos2unix"},
	{"name": "KAlgebra", "application": "kalgebra", "type": "generic-build", "cmakeParameters": "", "dependency": ""},
	{"name": "KirigamiGallery", "application": "kirigami-gallery", "type": "generic-build", "cmakeParameters": "", "dependency": ""},
	{"name": "Klimbgrades", "application": "klimbgrades", "type": "generic-build", "cmakeParameters": "", "dependency": ""},
	{"name": "KTuberling", "application": "ktuberling", "type": "generic-build", "cmakeParameters": "", "dependency": ""},
	{"name": "vvave", "application": "vvave", "type": "generic-build", "cmakeParameters": "", "dependency": ""},
	{"name": "konversation-konvi2x", "application": "konversation", "type": "generic-build", "cmakeParameters": "", "dependency": "export APP_GIT_EXTRA='--branch wip/qtquick'"},
	{"name": "Okular", "application": "okular", "type": "generic-build", "cmakeParameters": "", "dependency": "/opt/helpers/build-poppler"},
	{"name": "Itinerary", "application": "itinerary", "type": "generic-build", "cmakeParameters": "", "dependency": "/opt/helpers/build-poppler -DENABLE_UNSTABLE_API_ABI_HEADERS=ON -DENABLE_UTILS=OFF && /opt/helpers/build-cmake zxing-cpp https://github.com/nu-book/zxing-cpp.git -DBUILD_UNIT_TESTS=OFF -DBUILD_BLACKBOX_TESTS=OFF -DBUILD_EXAMPLES=OFF && AUTOTOOLS_EXTRA='--disable-static --without-lzma --without-python --without-debug --without-docbook --without-http' /opt/helpers/build-autotools libxml2 https://gitlab.gnome.org/GNOME/libxml2.git"},
	{"name": "KTrip", "application": "ktrip", "type": "generic-build", "cmakeParameters": "", "dependency": ""},
	{"name": "Calindori", "application": "calindori", "type": "generic-build", "cmakeParameters": "", "dependency": ""},
	{"name": "Kirogi", "application": "kirogi", "type": "generic-build", "cmakeParameters": "", "dependency": "/opt/helpers/build-gstreamer-binaries ; /opt/helpers/build-cmake QtZeroConf https://github.com/jbagg/QtZeroConf.git -DBUILD_SHARED_LIBS=ON"},
    {"name": "Plasma-Phonebook", "application": "plasma-phonebook", "type": "generic-build", "cmakeParameters": "", "dependency": ""},
    {"name": "Plasma-Camera", "application": "plasma-camera", "type": "generic-build", "cmakeParameters": "", "dependency": ""},
    {"name": "Koko", "application": "koko", "type": "generic-build", "cmakeParameters": "", "dependency": "/opt/helpers/build-cmake exiv2 https://github.com/exiv2/exiv2 -DCMAKE_POSITION_INDEPENDENT_CODE=On -DEXIV2_BUILD_EXIV2_COMMAND=Off -DEXIV2_BUILD_SAMPLES=Off"},
    {"name": "Index", "application": "index-fm", "type": "generic-build", "cmakeParameters": "", "dependency": ""},
    {"name": "Nota", "application": "nota", "type": "generic-build", "cmakeParameters": "", "dependency": ""},
    {"name": "Buho", "application": "buho", "type": "generic-build", "cmakeParameters": "", "dependency": ""},
    {"name": "Pix", "application": "maui-pix", "type": "generic-build", "cmakeParameters": "", "dependency": ""},
    {"name": "Kongress", "application": "kongress", "type": "generic-build", "cmakeParameters": "", "dependency": ""},
    {"name": "Kaidan", "application": "kaidan", "type": "generic-build", "cmakeParameters": "", "dependency": "export APP_GIT_EXTRA='--recurse-submodules' && /opt/helpers/build-cmake zxing-cpp https://github.com/nu-book/zxing-cpp.git -DBUILD_UNIT_TESTS=OFF -DBUILD_BLACKBOX_TESTS=OFF -DBUILD_EXAMPLES=OFF && /opt/helpers/build-cmake qxmpp https://github.com/qxmpp-project/qxmpp.git"},
    {"name": "Qrca", "application": "qrca", "type": "generic-build", "cmakeParameters": "", "dependency": "/opt/helpers/build-cmake zxing-cpp https://github.com/nu-book/zxing-cpp.git -DBUILD_UNIT_TESTS=OFF -DBUILD_BLACKBOX_TESTS=OFF -DBUILD_EXAMPLES=OFF"},
    {"name": "Keysmith", "application": "keysmith", "type": "generic-build", "cmakeParameters": "", "dependency": ""},
    {"name": "Kookbook", "application": "kookbook", "type": "generic-build", "cmakeParameters": "", "dependency": "/opt/helpers/build-discount"},
    {"name": "Alligator", "application": "alligator", "type": "generic-build", "cmakeParameters": "", "dependency": ""},
    {"name": "KWeather", "application": "kweather", "type": "generic-build", "cmakeParameters": "", "dependency": ""},
    {"name": "Kontrast", "application": "kontrast", "type": "generic-build", "cmakeParameters": "", "dependency": ""},
    {"name": "KRecorder", "application": "krecorder", "type": "generic-build", "cmakeParameters": "", "dependency": ""},
    {"name": "Neochat", "application": "neochat", "type": "generic-build", "cmakeParameters": "", "dependency": "/opt/helpers/build-cmake cmark https://github.com/commonmark/cmark.git && /opt/helpers/build-cmake libquotient https://github.com/quotient-im/libquotient.git"},
    
	{"name": "KDEConnect", "application": "kdeconnect-kde", "type": "kdeconnect-build", "cmakeParameters": "", "dependency": ""}
]
